%!PS-Adobe-2.0 EPSF-2.0
%%Title: psblas.fig
%%Creator: fig2dev Version 3.2 Patchlevel 5
%%CreationDate: Wed Apr 28 16:10:55 2010
%%For: sfilippo@localhost.localdomain (Salvatore Filippone)
%%BoundingBox: 0 0 195 215
%Magnification: 0.5000
%%EndComments
/$F2psDict 200 dict def
$F2psDict begin
$F2psDict /mtrx matrix put
/col-1 {0 setgray} bind def
/col0 {0.000 0.000 0.000 srgb} bind def
/col1 {0.000 0.000 1.000 srgb} bind def
/col2 {0.000 1.000 0.000 srgb} bind def
/col3 {0.000 1.000 1.000 srgb} bind def
/col4 {1.000 0.000 0.000 srgb} bind def
/col5 {1.000 0.000 1.000 srgb} bind def
/col6 {1.000 1.000 0.000 srgb} bind def
/col7 {1.000 1.000 1.000 srgb} bind def
/col8 {0.000 0.000 0.560 srgb} bind def
/col9 {0.000 0.000 0.690 srgb} bind def
/col10 {0.000 0.000 0.820 srgb} bind def
/col11 {0.530 0.810 1.000 srgb} bind def
/col12 {0.000 0.560 0.000 srgb} bind def
/col13 {0.000 0.690 0.000 srgb} bind def
/col14 {0.000 0.820 0.000 srgb} bind def
/col15 {0.000 0.560 0.560 srgb} bind def
/col16 {0.000 0.690 0.690 srgb} bind def
/col17 {0.000 0.820 0.820 srgb} bind def
/col18 {0.560 0.000 0.000 srgb} bind def
/col19 {0.690 0.000 0.000 srgb} bind def
/col20 {0.820 0.000 0.000 srgb} bind def
/col21 {0.560 0.000 0.560 srgb} bind def
/col22 {0.690 0.000 0.690 srgb} bind def
/col23 {0.820 0.000 0.820 srgb} bind def
/col24 {0.500 0.190 0.000 srgb} bind def
/col25 {0.630 0.250 0.000 srgb} bind def
/col26 {0.750 0.380 0.000 srgb} bind def
/col27 {1.000 0.500 0.500 srgb} bind def
/col28 {1.000 0.630 0.630 srgb} bind def
/col29 {1.000 0.750 0.750 srgb} bind def
/col30 {1.000 0.880 0.880 srgb} bind def
/col31 {1.000 0.840 0.000 srgb} bind def

end
save
newpath 0 215 moveto 0 0 lineto 195 0 lineto 195 215 lineto closepath clip newpath
-5.3 221.5 translate
1 -1 scale

/cp {closepath} bind def
/ef {eofill} bind def
/gr {grestore} bind def
/gs {gsave} bind def
/sa {save} bind def
/rs {restore} bind def
/l {lineto} bind def
/m {moveto} bind def
/rm {rmoveto} bind def
/n {newpath} bind def
/s {stroke} bind def
/sh {show} bind def
/slc {setlinecap} bind def
/slj {setlinejoin} bind def
/slw {setlinewidth} bind def
/srgb {setrgbcolor} bind def
/rot {rotate} bind def
/sc {scale} bind def
/sd {setdash} bind def
/ff {findfont} bind def
/sf {setfont} bind def
/scf {scalefont} bind def
/sw {stringwidth} bind def
/tr {translate} bind def
/tnt {dup dup currentrgbcolor
  4 -2 roll dup 1 exch sub 3 -1 roll mul add
  4 -2 roll dup 1 exch sub 3 -1 roll mul add
  4 -2 roll dup 1 exch sub 3 -1 roll mul add srgb}
  bind def
/shd {dup dup currentrgbcolor 4 -2 roll mul 4 -2 roll mul
  4 -2 roll mul srgb} bind def
/$F2psBegin {$F2psDict begin /$F2psEnteredState save def} def
/$F2psEnd {$F2psEnteredState restore end} def

$F2psBegin
10 setmiterlimit
0 slj 0 slc
 0.03150 0.03150 sc
%
% Fig objects follow
%
% 
% here starts figure with depth 50
/Times-Roman ff 396.88 scf sf
540 6210 m
gs 1 -1 sc (Serial Sparse) col0 sh gr
/Times-Roman ff 396.88 scf sf
1080 6660 m
gs 1 -1 sc (BLAS) col0 sh gr
% Polyline
0 slj
0 slc
7.500 slw
n 2025 225 m 1800 225 1800 1350 225 arcto 4 {pop} repeat
  1800 1575 4275 1575 225 arcto 4 {pop} repeat
  4500 1575 4500 450 225 arcto 4 {pop} repeat
  4500 225 2025 225 225 arcto 4 {pop} repeat
 cp gs col0 s gr 
% Polyline
gs  clippath
3180 1765 m 3180 1560 l 3120 1560 l 3120 1765 l 3120 1765 l 3150 1615 l 3180 1765 l cp
eoclip
n 3150 2970 m
 3150 1575 l gs col0 s gr gr

% arrowhead
15.000 slw
n 3180 1765 m 3150 1615 l 3120 1765 l 3150 1735 l 3180 1765 l 
 cp gs 0.00 setgray ef gr  col0 s
% Polyline
7.500 slw
n 2100 2925 m 1845 2925 1845 4020 255 arcto 4 {pop} repeat
  1845 4275 4425 4275 255 arcto 4 {pop} repeat
  4680 4275 4680 3180 255 arcto 4 {pop} repeat
  4680 2925 2100 2925 255 arcto 4 {pop} repeat
 cp gs col0 s gr 
% Polyline
n 405 5670 m 180 5670 180 6750 225 arcto 4 {pop} repeat
  180 6975 2655 6975 225 arcto 4 {pop} repeat
  2880 6975 2880 5895 225 arcto 4 {pop} repeat
  2880 5670 405 5670 225 arcto 4 {pop} repeat
 cp gs col0 s gr 
% Polyline
n 2880 6300 m
 3420 6300 l gs col0 s gr 
% Polyline
gs  clippath
3180 4456 m 3180 4305 l 3120 4305 l 3120 4456 l 3120 4456 l 3150 4336 l 3180 4456 l cp
eoclip
n 3150 6300 m
 3150 4320 l gs col0 s gr gr

% arrowhead
n 3180 4456 m 3150 4336 l 3120 4456 l 3180 4456 l  cp gs 0.00 setgray ef gr  col0 s
% Polyline
15.000 slw
 [90] 0 sd
n 900 2295 m
 5445 2295 l gs col0 s gr  [] 0 sd
% Polyline
 [90] 0 sd
n 945 4995 m
 5490 4995 l gs col0 s gr  [] 0 sd
% Polyline
7.500 slw
n 3645 5625 m 3420 5625 3420 6795 225 arcto 4 {pop} repeat
  3420 7020 5895 7020 225 arcto 4 {pop} repeat
  6120 7020 6120 5850 225 arcto 4 {pop} repeat
  6120 5625 3645 5625 225 arcto 4 {pop} repeat
 cp gs col0 s gr 
/Times-Roman ff 396.88 scf sf
2295 990 m
gs 1 -1 sc (Application) col0 sh gr
/Times-Roman ff 396.88 scf sf
2250 3735 m
gs 1 -1 sc (PSBLAS ) col0 sh gr
/Times-Roman ff 396.88 scf sf
4050 2160 m
gs 1 -1 sc (Fortran95) col0 sh gr
/Times-Roman ff 396.88 scf sf
4050 2565 m
gs 1 -1 sc (Interface) col0 sh gr
/Times-Roman ff 396.88 scf sf
4140 4860 m
gs 1 -1 sc (Inner) col0 sh gr
/Times-Roman ff 396.88 scf sf
4140 5310 m
gs 1 -1 sc (Interface) col0 sh gr
/Times-Roman ff 396.88 scf sf
3420 6120 m
gs 1 -1 sc (Message Passing) col0 sh gr
/Times-Roman ff 396.88 scf sf
4275 6660 m
gs 1 -1 sc (MPI) col0 sh gr
% here ends figure;
$F2psEnd
rs
showpage
%%Trailer
%EOF
